{
  "appName": {
    "message": "microbolts",
    "description": "The name of the application"
  },
  "appDescription": {
    "message": "Microbolts Chrome Extension",
    "description": "The description of the application"
  }
}
